{"_id":{"$oid":"5eb357e8886bc2c8f41f172f"},"code":"ICT301","nom":"Software Architectures and Design","credit":"6","id_fil":{"$oid":"5eac33b2209af25688dd881e"},"id_niv":{"$oid":"5eac3517209af25688dd8821"}}
{"_id":{"$oid":"5eb357e8886bc2c8f41f1730"},"code":"ICT303","nom":"Data Communication and Security 30","credit":"6","id_fil":{"$oid":"5eac33b2209af25688dd881e"},"id_niv":{"$oid":"5eac3517209af25688dd8821"}}
{"_id":{"$oid":"5eb357e8886bc2c8f41f1731"},"code":"ICT305","nom":"Web Application Development","credit":"4","id_fil":{"$oid":"5eac33b2209af25688dd881e"},"id_niv":{"$oid":"5eac3517209af25688dd8821"}}
{"_id":{"$oid":"5eb357e8886bc2c8f41f1732"},"code":"ICT307","nom":"Computer Systems Engineering","credit":"5","id_fil":{"$oid":"5eac33b2209af25688dd881e"},"id_niv":{"$oid":"5eac3517209af25688dd8821"}}
{"_id":{"$oid":"5eb357e8886bc2c8f41f1733"},"code":"ENGL303","nom":"English III","credit":"3","id_fil":{"$oid":"5eac33b2209af25688dd881e"},"id_niv":{"$oid":"5eac3517209af25688dd8821"}}
{"_id":{"$oid":"5eb357e8886bc2c8f41f1734"},"code":"FRAN303","nom":"Français III","credit":"3","id_fil":{"$oid":"5eac33b2209af25688dd881e"},"id_niv":{"$oid":"5eac3517209af25688dd8821"}}
{"_id":{"$oid":"5eb357e8886bc2c8f41f1735"},"code":"ICT313","nom":"Cyber and Internet Security","credit":"4","id_fil":{"$oid":"5eac33b2209af25688dd881e"},"id_niv":{"$oid":"5eac3517209af25688dd8821"}}
{"_id":{"$oid":"5eb357e8886bc2c8f41f1736"},"code":"ICT315","nom":"Network Application Development","credit":"4","id_fil":{"$oid":"5eac33b2209af25688dd881e"},"id_niv":{"$oid":"5eac3517209af25688dd8821"}}
{"_id":{"$oid":"5eb357e8886bc2c8f41f1737"},"code":"ICT317","nom":"Information System","credit":"4","id_fil":{"$oid":"5eac33b2209af25688dd881e"},"id_niv":{"$oid":"5eac3517209af25688dd8821"}}
{"_id":{"$oid":"5eb357e8886bc2c8f41f1738"},"code":"ICT300","nom":"Internship","credit":"12","id_fil":{"$oid":"5eac33b2209af25688dd881e"},"id_niv":{"$oid":"5eac3517209af25688dd8821"}}
{"_id":{"$oid":"5eb357e8886bc2c8f41f1739"},"code":"ICT302","nom":"Introduction to Artificial Intelligence","credit":"4","id_fil":{"$oid":"5eac33b2209af25688dd881e"},"id_niv":{"$oid":"5eac3517209af25688dd8821"}}
{"_id":{"$oid":"5eb357e8886bc2c8f41f173a"},"code":"ICT304","nom":"Software Testing and Deployment","credit":"3","id_fil":{"$oid":"5eac33b2209af25688dd881e"},"id_niv":{"$oid":"5eac3517209af25688dd8821"}}
{"_id":{"$oid":"5eb357e8886bc2c8f41f173b"},"code":"ICT306","nom":"Business Intelligence","credit":"4","id_fil":{"$oid":"5eac33b2209af25688dd881e"},"id_niv":{"$oid":"5eac3517209af25688dd8821"}}
{"_id":{"$oid":"5eb357e8886bc2c8f41f173c"},"code":"ICT308","nom":"Software Development in Java II","credit":"4","id_fil":{"$oid":"5eac33b2209af25688dd881e"},"id_niv":{"$oid":"5eac3517209af25688dd8821"}}
{"_id":{"$oid":"5eb357e8886bc2c8f41f173d"},"code":"ICT310","nom":"Professional Issues in IT","credit":"3","id_fil":{"$oid":"5eac33b2209af25688dd881e"},"id_niv":{"$oid":"5eac3517209af25688dd8821"}}
{"_id":{"$oid":"5eb357e8886bc2c8f41f173e"},"code":"ICT314","nom":"Computer Forensics and Incident","credit":"4","id_fil":{"$oid":"5eac33b2209af25688dd881e"},"id_niv":{"$oid":"5eac3517209af25688dd8821"}}
{"_id":{"$oid":"5eb357e8886bc2c8f41f173f"},"code":"ICT316","nom":"Digital communication","credit":"4","id_fil":{"$oid":"5eac33b2209af25688dd881e"},"id_niv":{"$oid":"5eac3517209af25688dd8821"}}
{"_id":{"$oid":"5eb357e8886bc2c8f41f1740"},"code":"ICT318","nom":"Enterprise Edition","credit":"4","id_fil":{"$oid":"5eac33b2209af25688dd881e"},"id_niv":{"$oid":"5eac3517209af25688dd8821"}}
