{"_id":{"$oid":"5eac34cb209af25688dd881f"},"nom":"L1"}
{"_id":{"$oid":"5eac34f9209af25688dd8820"},"nom":"L2"}
{"_id":{"$oid":"5eac3517209af25688dd8821"},"nom":"L3"}
{"_id":{"$oid":"5ecfa7d4262c3e5172195955"},"nom":"M1"}
{"_id":{"$oid":"5ecfa7d8262c3e5172195956"},"nom":"M2"}
