{"_id":{"$oid":"5f3e1c073dd39c39c886aec6"},"etats":[{"$oid":"5f40cda2e373bb20263bf837"},{"$oid":"5f40ce40454579324c3fa6cc"},{"$oid":"5f40ce58454579324c3fa6cd"}],"nom":"Activation de matricule","objet":"Demande d'activation de matricule","destinataire":"Vice Doyen - DSSE","pieces":"Fiche d'inscription académique, Reçu(s) certifié(s)","icon":"fa fa-user-plus icon","description":"Votre matricule n'est pas activé ou vous avez du mal à tirer votre fiche ?"}
{"_id":{"$oid":"5f3e262ca5102b39c8d6ad25"},"etats":[{"$oid":"5f40cda2e373bb20263bf837"},{"$oid":"5f40ce40454579324c3fa6cc"},{"$oid":"5f40ce58454579324c3fa6cd"}],"nom":"Obtention du certificat de scolarite","objet":"Demande d'obtention du certificat de scolarite","destinataire":"Vice Doyen - DSSE","pieces":"Fiche d'inscription académique, Reçu(s) certifié(s)","icon":"fa fa-certificate icon","description":"Le savez vous ?\nLe certificat de scolirité est le document qui atteste que vous etes étudiant."}
{"_id":{"$oid":"5f3e2640a5102b39c8d6ad26"},"etats":[{"$oid":"5f40cda2e373bb20263bf837"},{"$oid":"5f40ce40454579324c3fa6cc"},{"$oid":"5f40ce58454579324c3fa6cd"}],"nom":"Publication de note","objet":"Demande de publication de note","destinataire":"Vice Doyen - DSSE","pieces":"Proccès verbal de l'UE, Reçu(s) certifié(s), autres","icon":"fa fa-list-alt icon","description":"Problème avec une UE\n\nVos notes n'ont pas été affichée ?"}
{"_id":{"$oid":"5f3e2651a5102b39c8d6ad27"},"etats":[{"$oid":"5f40cda2e373bb20263bf837"},{"$oid":"5f40ce40454579324c3fa6cc"},{"$oid":"5f40ce58454579324c3fa6cd"}],"nom":"Autorisation à soutenir","objet":"Demande d'autorisation à soutenir","destinataire":"Vice Doyen - DSSE","pieces":"Mémoire, Liste memebres du juré","icon":"fa fa-leaf icon","description":"Vous souhaitez deposer votre demande d'autorisation à soutenir ?"}
{"_id":{"$oid":"5f3e265fa5102b39c8d6ad28"},"etats":[{"$oid":"5f40cda2e373bb20263bf837"},{"$oid":"5f40ce40454579324c3fa6cc"},{"$oid":"5f40ce58454579324c3fa6cd"}],"nom":"Rectification de notes","objet":"Demande de rectification de notes","destinataire":"Vice Doyen - DSSE","pieces":"Proccès verbal de l'UE,Document non conforme, Reçu(s) certifié(s), autres","icon":"fa fa-retweet icon","description":"Votre note a été affichée avec des erreurs ?"}
{"_id":{"$oid":"5f3e266ba5102b39c8d6ad29"},"etats":[{"$oid":"5f40cda2e373bb20263bf837"},{"$oid":"5f40ce40454579324c3fa6cc"},{"$oid":"5f40ce58454579324c3fa6cd"}],"nom":"Matricule incorrect","objet":"Demande de rectification de matricule","destinataire":"Vice Doyen - DSSE","pieces":"Document(s) non conforme(s), Reçu(s) certifié(s), autres","icon":"fa fa-user-times icon","description":"Votre matricule est incorrect lors d'une publication de note ou sur un document ?"}
{"_id":{"$oid":"5f3e2672a5102b39c8d6ad2a"},"etats":[{"$oid":"5f40cda2e373bb20263bf837"},{"$oid":"5f40ce40454579324c3fa6cc"},{"$oid":"5f40ce58454579324c3fa6cd"}],"nom":"Autres","objet":"Demande particulière","destinataire":"Vice Doyen - DSSE","pieces":"Document(s) relatif(s)","icon":"fa fa-question-circle-o icon","description":"Votre type de requete n'est pas dans la liste ?\u003cbr\u003ePas de panique nous gérons !"}
