{"_id":{"$oid":"5f40cda2e373bb20263bf837"},"nom":"En cours"}
{"_id":{"$oid":"5f40ce40454579324c3fa6cc"},"nom":"Traitée - validée"}
{"_id":{"$oid":"5f40ce58454579324c3fa6cd"},"nom":"Traitée - Rejetée"}
